^C:\SHADOWCAT\SHADOW-CAT\ROBOCATACTION\ROBOCAT\SRC\ROBOCATPCH.CPP
C:\SHADOWCAT\SHADOW-CAT\ROBOCATACTION\ROBOCAT\DEBUG\ROBOCAT.PCH
C:\SHADOWCAT\SHADOW-CAT\ROBOCATACTION\ROBOCAT\DEBUG\ROBOCAT.PDB
C:\SHADOWCAT\SHADOW-CAT\ROBOCATACTION\ROBOCAT\DEBUG\ROBOCAT.IDB
C:\SHADOWCAT\SHADOW-CAT\ROBOCATACTION\ROBOCAT\DEBUG\ROBOCATPCH.OBJ
^C:\SHADOWCAT\SHADOW-CAT\ROBOCATACTION\ROBOCAT\SRC\ACKRANGE.CPP|C:\SHADOWCAT\SHADOW-CAT\ROBOCATACTION\ROBOCAT\SRC\DELIVERYNOTIFICATIONMANAGER.CPP|C:\SHADOWCAT\SHADOW-CAT\ROBOCATACTION\ROBOCAT\SRC\ENGINE.CPP|C:\SHADOWCAT\SHADOW-CAT\ROBOCATACTION\ROBOCAT\SRC\GAMEOBJECT.CPP|C:\SHADOWCAT\SHADOW-CAT\ROBOCATACTION\ROBOCAT\SRC\GAMEOBJECTREGISTRY.CPP|C:\SHADOWCAT\SHADOW-CAT\ROBOCATACTION\ROBOCAT\SRC\INFLIGHTPACKET.CPP|C:\SHADOWCAT\SHADOW-CAT\ROBOCATACTION\ROBOCAT\SRC\INPUTSTATE.CPP|C:\SHADOWCAT\SHADOW-CAT\ROBOCATACTION\ROBOCAT\SRC\MEMORYBITSTREAM.CPP|C:\SHADOWCAT\SHADOW-CAT\ROBOCATACTION\ROBOCAT\SRC\MOUSE.CPP|C:\SHADOWCAT\SHADOW-CAT\ROBOCATACTION\ROBOCAT\SRC\MOVE.CPP|C:\SHADOWCAT\SHADOW-CAT\ROBOCATACTION\ROBOCAT\SRC\MOVELIST.CPP|C:\SHADOWCAT\SHADOW-CAT\ROBOCATACTION\ROBOCAT\SRC\NETWORKMANAGER.CPP|C:\SHADOWCAT\SHADOW-CAT\ROBOCATACTION\ROBOCAT\SRC\ROBOCAT.CPP|C:\SHADOWCAT\SHADOW-CAT\ROBOCATACTION\ROBOCAT\SRC\ROBOMATH.CPP|C:\SHADOWCAT\SHADOW-CAT\ROBOCATACTION\ROBOCAT\SRC\SCOREBOARDMANAGER.CPP|C:\SHADOWCAT\SHADOW-CAT\ROBOCATACTION\ROBOCAT\SRC\SOCKETADDRESS.CPP|C:\SHADOWCAT\SHADOW-CAT\ROBOCATACTION\ROBOCAT\SRC\SOCKETADDRESSFACTORY.CPP|C:\SHADOWCAT\SHADOW-CAT\ROBOCATACTION\ROBOCAT\SRC\SOCKETUTIL.CPP|C:\SHADOWCAT\SHADOW-CAT\ROBOCATACTION\ROBOCAT\SRC\STRINGUTILS.CPP|C:\SHADOWCAT\SHADOW-CAT\ROBOCATACTION\ROBOCAT\SRC\TCPSOCKET.CPP|C:\SHADOWCAT\SHADOW-CAT\ROBOCATACTION\ROBOCAT\SRC\TIMING.CPP|C:\SHADOWCAT\SHADOW-CAT\ROBOCATACTION\ROBOCAT\SRC\UDPSOCKET.CPP|C:\SHADOWCAT\SHADOW-CAT\ROBOCATACTION\ROBOCAT\SRC\WORLD.CPP|C:\SHADOWCAT\SHADOW-CAT\ROBOCATACTION\ROBOCAT\SRC\YARN.CPP
C:\SHADOWCAT\SHADOW-CAT\ROBOCATACTION\ROBOCAT\DEBUG\ROBOCAT.PDB
C:\SHADOWCAT\SHADOW-CAT\ROBOCATACTION\ROBOCAT\DEBUG\ROBOCAT.IDB
C:\SHADOWCAT\SHADOW-CAT\ROBOCATACTION\ROBOCAT\DEBUG\TCPSOCKET.OBJ
C:\SHADOWCAT\SHADOW-CAT\ROBOCATACTION\ROBOCAT\DEBUG\STRINGUTILS.OBJ
C:\SHADOWCAT\SHADOW-CAT\ROBOCATACTION\ROBOCAT\DEBUG\SOCKETUTIL.OBJ
C:\SHADOWCAT\SHADOW-CAT\ROBOCATACTION\ROBOCAT\DEBUG\SOCKETADDRESSFACTORY.OBJ
C:\SHADOWCAT\SHADOW-CAT\ROBOCATACTION\ROBOCAT\DEBUG\SOCKETADDRESS.OBJ
C:\SHADOWCAT\SHADOW-CAT\ROBOCATACTION\ROBOCAT\DEBUG\SCOREBOARDMANAGER.OBJ
C:\SHADOWCAT\SHADOW-CAT\ROBOCATACTION\ROBOCAT\DEBUG\ROBOMATH.OBJ
C:\SHADOWCAT\SHADOW-CAT\ROBOCATACTION\ROBOCAT\DEBUG\ROBOCAT.OBJ
C:\SHADOWCAT\SHADOW-CAT\ROBOCATACTION\ROBOCAT\DEBUG\NETWORKMANAGER.OBJ
C:\SHADOWCAT\SHADOW-CAT\ROBOCATACTION\ROBOCAT\DEBUG\MOVELIST.OBJ
C:\SHADOWCAT\SHADOW-CAT\ROBOCATACTION\ROBOCAT\DEBUG\MOVE.OBJ
C:\SHADOWCAT\SHADOW-CAT\ROBOCATACTION\ROBOCAT\DEBUG\MOUSE.OBJ
C:\SHADOWCAT\SHADOW-CAT\ROBOCATACTION\ROBOCAT\DEBUG\MEMORYBITSTREAM.OBJ
C:\SHADOWCAT\SHADOW-CAT\ROBOCATACTION\ROBOCAT\DEBUG\INPUTSTATE.OBJ
C:\SHADOWCAT\SHADOW-CAT\ROBOCATACTION\ROBOCAT\DEBUG\INFLIGHTPACKET.OBJ
C:\SHADOWCAT\SHADOW-CAT\ROBOCATACTION\ROBOCAT\DEBUG\GAMEOBJECTREGISTRY.OBJ
C:\SHADOWCAT\SHADOW-CAT\ROBOCATACTION\ROBOCAT\DEBUG\GAMEOBJECT.OBJ
C:\SHADOWCAT\SHADOW-CAT\ROBOCATACTION\ROBOCAT\DEBUG\ENGINE.OBJ
C:\SHADOWCAT\SHADOW-CAT\ROBOCATACTION\ROBOCAT\DEBUG\DELIVERYNOTIFICATIONMANAGER.OBJ
C:\SHADOWCAT\SHADOW-CAT\ROBOCATACTION\ROBOCAT\DEBUG\ACKRANGE.OBJ
C:\SHADOWCAT\SHADOW-CAT\ROBOCATACTION\ROBOCAT\DEBUG\YARN.OBJ
C:\SHADOWCAT\SHADOW-CAT\ROBOCATACTION\ROBOCAT\DEBUG\WORLD.OBJ
C:\SHADOWCAT\SHADOW-CAT\ROBOCATACTION\ROBOCAT\DEBUG\UDPSOCKET.OBJ
C:\SHADOWCAT\SHADOW-CAT\ROBOCATACTION\ROBOCAT\DEBUG\TIMING.OBJ
^C:\SHADOWCAT\SHADOW-CAT\ROBOCATACTION\ROBOCAT\SRC\ACKRANGE.CPP
C:\SHADOWCAT\SHADOW-CAT\ROBOCATACTION\ROBOCAT\DEBUG\ROBOCAT.PDB
^C:\SHADOWCAT\SHADOW-CAT\ROBOCATACTION\ROBOCAT\SRC\DELIVERYNOTIFICATIONMANAGER.CPP
C:\SHADOWCAT\SHADOW-CAT\ROBOCATACTION\ROBOCAT\DEBUG\ROBOCAT.PDB
^C:\SHADOWCAT\SHADOW-CAT\ROBOCATACTION\ROBOCAT\SRC\ENGINE.CPP
C:\SHADOWCAT\SHADOW-CAT\ROBOCATACTION\ROBOCAT\DEBUG\ROBOCAT.PDB
^C:\SHADOWCAT\SHADOW-CAT\ROBOCATACTION\ROBOCAT\SRC\GAMEOBJECT.CPP
C:\SHADOWCAT\SHADOW-CAT\ROBOCATACTION\ROBOCAT\DEBUG\ROBOCAT.PDB
^C:\SHADOWCAT\SHADOW-CAT\ROBOCATACTION\ROBOCAT\SRC\GAMEOBJECTREGISTRY.CPP
C:\SHADOWCAT\SHADOW-CAT\ROBOCATACTION\ROBOCAT\DEBUG\ROBOCAT.PDB
^C:\SHADOWCAT\SHADOW-CAT\ROBOCATACTION\ROBOCAT\SRC\INFLIGHTPACKET.CPP
C:\SHADOWCAT\SHADOW-CAT\ROBOCATACTION\ROBOCAT\DEBUG\ROBOCAT.PDB
^C:\SHADOWCAT\SHADOW-CAT\ROBOCATACTION\ROBOCAT\SRC\INPUTSTATE.CPP
C:\SHADOWCAT\SHADOW-CAT\ROBOCATACTION\ROBOCAT\DEBUG\ROBOCAT.PDB
^C:\SHADOWCAT\SHADOW-CAT\ROBOCATACTION\ROBOCAT\SRC\MEMORYBITSTREAM.CPP
C:\SHADOWCAT\SHADOW-CAT\ROBOCATACTION\ROBOCAT\DEBUG\ROBOCAT.PDB
^C:\SHADOWCAT\SHADOW-CAT\ROBOCATACTION\ROBOCAT\SRC\MOUSE.CPP
C:\SHADOWCAT\SHADOW-CAT\ROBOCATACTION\ROBOCAT\DEBUG\ROBOCAT.PDB
^C:\SHADOWCAT\SHADOW-CAT\ROBOCATACTION\ROBOCAT\SRC\MOVE.CPP
C:\SHADOWCAT\SHADOW-CAT\ROBOCATACTION\ROBOCAT\DEBUG\ROBOCAT.PDB
^C:\SHADOWCAT\SHADOW-CAT\ROBOCATACTION\ROBOCAT\SRC\MOVELIST.CPP
C:\SHADOWCAT\SHADOW-CAT\ROBOCATACTION\ROBOCAT\DEBUG\ROBOCAT.PDB
^C:\SHADOWCAT\SHADOW-CAT\ROBOCATACTION\ROBOCAT\SRC\NETWORKMANAGER.CPP
C:\SHADOWCAT\SHADOW-CAT\ROBOCATACTION\ROBOCAT\DEBUG\ROBOCAT.PDB
^C:\SHADOWCAT\SHADOW-CAT\ROBOCATACTION\ROBOCAT\SRC\ROBOCAT.CPP
C:\SHADOWCAT\SHADOW-CAT\ROBOCATACTION\ROBOCAT\DEBUG\ROBOCAT.PDB
^C:\SHADOWCAT\SHADOW-CAT\ROBOCATACTION\ROBOCAT\SRC\ROBOMATH.CPP
C:\SHADOWCAT\SHADOW-CAT\ROBOCATACTION\ROBOCAT\DEBUG\ROBOCAT.PDB
^C:\SHADOWCAT\SHADOW-CAT\ROBOCATACTION\ROBOCAT\SRC\SCOREBOARDMANAGER.CPP
C:\SHADOWCAT\SHADOW-CAT\ROBOCATACTION\ROBOCAT\DEBUG\ROBOCAT.PDB
^C:\SHADOWCAT\SHADOW-CAT\ROBOCATACTION\ROBOCAT\SRC\SOCKETADDRESS.CPP
C:\SHADOWCAT\SHADOW-CAT\ROBOCATACTION\ROBOCAT\DEBUG\ROBOCAT.PDB
^C:\SHADOWCAT\SHADOW-CAT\ROBOCATACTION\ROBOCAT\SRC\SOCKETADDRESSFACTORY.CPP
C:\SHADOWCAT\SHADOW-CAT\ROBOCATACTION\ROBOCAT\DEBUG\ROBOCAT.PDB
^C:\SHADOWCAT\SHADOW-CAT\ROBOCATACTION\ROBOCAT\SRC\SOCKETUTIL.CPP
C:\SHADOWCAT\SHADOW-CAT\ROBOCATACTION\ROBOCAT\DEBUG\ROBOCAT.PDB
^C:\SHADOWCAT\SHADOW-CAT\ROBOCATACTION\ROBOCAT\SRC\STRINGUTILS.CPP
C:\SHADOWCAT\SHADOW-CAT\ROBOCATACTION\ROBOCAT\DEBUG\ROBOCAT.PDB
^C:\SHADOWCAT\SHADOW-CAT\ROBOCATACTION\ROBOCAT\SRC\TCPSOCKET.CPP
C:\SHADOWCAT\SHADOW-CAT\ROBOCATACTION\ROBOCAT\DEBUG\ROBOCAT.PDB
^C:\SHADOWCAT\SHADOW-CAT\ROBOCATACTION\ROBOCAT\SRC\TIMING.CPP
C:\SHADOWCAT\SHADOW-CAT\ROBOCATACTION\ROBOCAT\DEBUG\ROBOCAT.PDB
^C:\SHADOWCAT\SHADOW-CAT\ROBOCATACTION\ROBOCAT\SRC\UDPSOCKET.CPP
C:\SHADOWCAT\SHADOW-CAT\ROBOCATACTION\ROBOCAT\DEBUG\ROBOCAT.PDB
^C:\SHADOWCAT\SHADOW-CAT\ROBOCATACTION\ROBOCAT\SRC\WORLD.CPP
C:\SHADOWCAT\SHADOW-CAT\ROBOCATACTION\ROBOCAT\DEBUG\ROBOCAT.PDB
^C:\SHADOWCAT\SHADOW-CAT\ROBOCATACTION\ROBOCAT\SRC\YARN.CPP
C:\SHADOWCAT\SHADOW-CAT\ROBOCATACTION\ROBOCAT\DEBUG\ROBOCAT.PDB
